Recorriendo el Tidyverse con las R-Ladies
…
---
background-image: url(https://github.com/cienciadedatos.png)
background-position: 1050px 20px
background-size: 110px

# Datos sobre capítulos de las RLadies

Estos datos fueron publicados para uno de los  [#DatosDeMiercoles](https://github.com/cienciadedatos/datos-de-miercoles/tree/master/datos/2019/2019-06-26) de junio de 2019.

Para esta parte del taller, utilizaremos un tablero con la información de creación de los diferentes capítulos de las R-Ladies alrededor del mundo.

#### `capitulos`

```
#>  # A tibble: 160 x 7
#>     capitulo       creacion            miembros latitud longitud ciudad       pais 
#>     <chr>          <dttm>                 <dbl>   <dbl>    <dbl> <chr>        <chr>
#>   1 R-Ladies Barc… 2016-10-22 10:56:36      389   41.4      2.17 Barcelona    ES   
#>   2 R-Ladies Ushu… 2018-05-09 16:39:48       23  -54.8    -68.3  Ushuaia      AR   
#>   3 R-Ladies Bilb… 2019-02-27 05:37:09       38   43.2     -2.93 Bilbao       ES   
#>   4 R-Ladies Bari… 2018-05-10 02:22:15      114  -41.1    -71.3  San Carlos … AR   
#>   5 R-Ladies Melb… 2016-09-02 00:31:57     1213  -37.8    145.   Melbourne    AU   
#>   6 R-Ladies Novi… 2019-05-24 15:14:08       46   45.2     19.8  Novi Sad     RS   
#>   7 R-Ladies Port… 2017-10-30 02:47:19      261  -30.0    -51.2  Porto Alegre BR   
#>   8 R-Ladies High… 2019-05-09 17:48:51       30   40.5    -74.4  Highland Pa… US   
#>   9 R-Ladies Canb… 2018-12-10 04:26:52      108  -35.3    149.   Canberra     AU   
#>  10 R-Ladies Guay… 2018-04-05 22:48:47      292   -2.21   -79.9  Guayaquil    EC   
#>  # … with 150 more rows
```
…
.pull-left[

### `dplyr::mutate()`

```r
capitulos %>% 
  mutate(
    capitulo = str_remove(
      capitulo,   # string
      "R-Ladies " # patrón
    )
  ) %>% 
  select(capitulo)
#>  # A tibble: 160 x 1
#>     capitulo     
#>     <chr>        
#>   1 Barcelona    
#>   2 Ushuaia      
#>   3 Bilbao       
#>   4 Bariloche    
#>   5 Melbourne    
#>   6 Novi Sad     
#>   7 Porto Alegre 
#>   8 Highland Park
#>   9 Canberra     
#>  10 Guayaquil    
#>  # … with 150 more rows
```
…
- Facilita el trabajo con **lapsos de tiempo** y **zonas horarias**.

]

.panel[.panel-name[Ejemplos]

```r
capitulos %>% 
  select(capitulo, creacion) %>% 
  mutate(
    hora = hour(creacion),
    minuto = minute(creacion),
    segundo = second(creacion)
  )
#>  # A tibble: 160 x 5
#>     capitulo               creacion             hora minuto segundo
#>     <chr>                  <dttm>              <int>  <int>   <dbl>
#>   1 R-Ladies Barcelona     2016-10-22 10:56:36    10     56      36
#>   2 R-Ladies Ushuaia       2018-05-09 16:39:48    16     39      48
#>   3 R-Ladies Bilbao        2019-02-27 05:37:09     5     37       9
#>   4 R-Ladies Bariloche     2018-05-10 02:22:15     2     22      15
#>   5 R-Ladies Melbourne     2016-09-02 00:31:57     0     31      57
#>   6 R-Ladies Novi Sad      2019-05-24 15:14:08    15     14       8
#>   7 R-Ladies Porto Alegre  2017-10-30 02:47:19     2     47      19
#>   8 R-Ladies Highland Park 2019-05-09 17:48:51    17     48      51
#>   9 R-Ladies Canberra      2018-12-10 04:26:52     4     26      52
#>  10 R-Ladies Guayaquil     2018-04-05 22:48:47    22     48      47
#>  # … with 150 more rows
```
…
.right[Fuente: [R para Ciencia de Datos](https://es.r4ds.hadley.nz/datos-ordenados.html)]

]

.panel[.panel-name[`Ejemplo`]

`capitulos` es un conjunto de datos limpio:

- Cada variable tiene su propia columna.
- Cada capítulo tiene su propia fila.
- Cada valor tiene su propia celda.

```r
capitulos
#>  # A tibble: 160 x 7
#>     capitulo       creacion            miembros latitud longitud ciudad       pais 
#>     <chr>          <dttm>                 <dbl>   <dbl>    <dbl> <chr>        <chr>
#>   1 R-Ladies Barc… 2016-10-22 10:56:36      389   41.4      2.17 Barcelona    ES   
#>   2 R-Ladies Ushu… 2018-05-09 16:39:48       23  -54.8    -68.3  Ushuaia      AR   
#>   3 R-Ladies Bilb… 2019-02-27 05:37:09       38   43.2     -2.93 Bilbao       ES   
#>   4 R-Ladies Bari… 2018-05-10 02:22:15      114  -41.1    -71.3  San Carlos … AR   
#>   5 R-Ladies Melb… 2016-09-02 00:31:57     1213  -37.8    145.   Melbourne    AU   
#>   6 R-Ladies Novi… 2019-05-24 15:14:08       46   45.2     19.8  Novi Sad     RS   
#>   7 R-Ladies Port… 2017-10-30 02:47:19      261  -30.0    -51.2  Porto Alegre BR   
#>   8 R-Ladies High… 2019-05-09 17:48:51       30   40.5    -74.4  Highland Pa… US   
#>   9 R-Ladies Canb… 2018-12-10 04:26:52      108  -35.3    149.   Canberra     AU   
#>  10 R-Ladies Guay… 2018-04-05 22:48:47      292   -2.21   -79.9  Guayaquil    EC   
#>  # … with 150 more rows
```
]

.panel[.panel-name[`pivot_longer()`]

"Ensuciemos" nuestros datos:

```r
capitulos_coord_largo <- capitulos %>%
  pivot_longer(
    c(latitud, longitud),
    names_to = "nombre_coord",
    values_to = "valor_coord"
    )
capitulos_coord_largo
#>  # A tibble: 320 x 7
#>     capitulo   creacion            miembros ciudad   pais  nombre_coord valor_coord
#>     <chr>      <dttm>                 <dbl> <chr>    <chr> <chr>              <dbl>
#>   1 R-Ladies … 2016-10-22 10:56:36      389 Barcelo… ES    latitud            41.4 
#>   2 R-Ladies … 2016-10-22 10:56:36      389 Barcelo… ES    longitud            2.17
#>   3 R-Ladies … 2018-05-09 16:39:48       23 Ushuaia  AR    latitud           -54.8 
#>   4 R-Ladies … 2018-05-09 16:39:48       23 Ushuaia  AR    longitud          -68.3 
#>   5 R-Ladies … 2019-02-27 05:37:09       38 Bilbao   ES    latitud            43.2 
#>   6 R-Ladies … 2019-02-27 05:37:09       38 Bilbao   ES    longitud           -2.93
#>   7 R-Ladies … 2018-05-10 02:22:15      114 San Car… AR    latitud           -41.1 
#>   8 R-Ladies … 2018-05-10 02:22:15      114 San Car… AR    longitud          -71.3 
#>   9 R-Ladies … 2016-09-02 00:31:57     1213 Melbour… AU    latitud           -37.8 
#>  10 R-Ladies … 2016-09-02 00:31:57     1213 Melbour… AU    longitud          145.  
#>  # … with 310 more rows
```

]

.panel[.panel-name[`pivot_wider()`]

Volvamos al estado inicial:

```r
capitulos_coord_largo %>%
  pivot_wider(
    names_from = nombre_coord, 
    values_from = valor_coord
    )
#>  # A tibble: 160 x 7
#>     capitulo       creacion            miembros ciudad       pais  latitud longitud
#>     <chr>          <dttm>                 <dbl> <chr>        <chr>   <dbl>    <dbl>
#>   1 R-Ladies Barc… 2016-10-22 10:56:36      389 Barcelona    ES      41.4      2.17
#>   2 R-Ladies Ushu… 2018-05-09 16:39:48       23 Ushuaia      AR     -54.8    -68.3 
#>   3 R-Ladies Bilb… 2019-02-27 05:37:09       38 Bilbao       ES      43.2     -2.93
#>   4 R-Ladies Bari… 2018-05-10 02:22:15      114 San Carlos … AR     -41.1    -71.3 
#>   5 R-Ladies Melb… 2016-09-02 00:31:57     1213 Melbourne    AU     -37.8    145.  
#>   6 R-Ladies Novi… 2019-05-24 15:14:08       46 Novi Sad     RS      45.2     19.8 
#>   7 R-Ladies Port… 2017-10-30 02:47:19      261 Porto Alegre BR     -30.0    -51.2 
#>   8 R-Ladies High… 2019-05-09 17:48:51       30 Highland Pa… US      40.5    -74.4 
#>   9 R-Ladies Canb… 2018-12-10 04:26:52      108 Canberra     AU     -35.3    149.  
#>  10 R-Ladies Guay… 2018-04-05 22:48:47      292 Guayaquil    EC      -2.21   -79.9 
#>  # … with 150 more rows
```
…
**Uniones de filtro**, que filtran observaciones con respecto a la presencia o a la ausencia de observaciones en otro tablero.

- `semi_join()`
- `anti_join()`

]

.panel[.panel-name[`left_join()`]

```r
dim(eventos)
#>  [1] 1534    6

left_join(eventos, capitulos, by = "capitulo")
#>  # A tibble: 1,534 x 12
#>     capitulo titulo_evento fecha_local hora_local respuesta_asist… descripcion_eve…
#>     <chr>    <chr>         <date>      <time>                <dbl> <chr>           
#>   1 R-Ladie… ¡Primer even… 2016-11-21  19:00                    18 "<p>Estamos pre…
#>   2 R-Ladie… Scalable Mac… 2016-12-05  19:00                    58 "<p>&lt;a&gt;L'…
#>   3 R-Ladie… RMarkdown tu… 2017-01-16  19:00                    33 "<p>(Scroll dow…
#>   4 R-Ladie… Google Analy… 2017-02-20  19:00                    38 "<p>(Scroll dow…
#>   5 R-Ladie… Data wrangli… 2017-03-20  19:00                    16 "<p>(Scroll dow…
#>   6 R-Ladie… Introducció … 2017-04-24  19:00                    31 "<p>Tindrem un …
#>   7 R-Ladie… Descifrando … 2017-06-12  19:00                    18 "<p>Es realitza…
#>   8 R-Ladie… WomenInTech … 2017-08-25  18:30                     1 "<p>[!!!] NO OS…
#>   9 R-Ladie… Plots with g… 2017-09-27  19:00                    33 "<p>Per fi torn…
#>  10 R-Ladie… Take your R … 2017-11-06  19:00                    36 "<p>T'agradaria…
#>  # … with 1,524 more rows, and 6 more variables: creacion <dttm>, miembros <dbl>,
#>  #   latitud <dbl>, longitud <dbl>, ciudad <chr>, pais <chr>
```

]

.panel[.panel-name[`semi_join()`]

```r
capitulos_mpc <- filter(capitulos, pais %in% c("ES", "FR", "CO"))
pull(capitulos_mpc, ciudad)
#>  [1] "Barcelona"   "Bilbao"      "Valencia"    "Madrid"      "Lyon"       
#>  [6] "Montpellier" "Paris"       "Strasbourg"  "Bogotá"

semi_join(eventos, capitulos_mpc, by = "capitulo")
#>  # A tibble: 78 x 6
#>     capitulo titulo_evento fecha_local hora_local respuesta_asist… descripcion_eve…
#>     <chr>    <chr>         <date>      <time>                <dbl> <chr>           
#>   1 R-Ladie… ¡Primer even… 2016-11-21  19:00                    18 "<p>Estamos pre…
#>   2 R-Ladie… Scalable Mac… 2016-12-05  19:00                    58 "<p>&lt;a&gt;L'…
#>   3 R-Ladie… RMarkdown tu… 2017-01-16  19:00                    33 "<p>(Scroll dow…
#>   4 R-Ladie… Google Analy… 2017-02-20  19:00                    38 "<p>(Scroll dow…
#>   5 R-Ladie… Data wrangli… 2017-03-20  19:00                    16 "<p>(Scroll dow…
#>   6 R-Ladie… Introducció … 2017-04-24  19:00                    31 "<p>Tindrem un …
#>   7 R-Ladie… Descifrando … 2017-06-12  19:00                    18 "<p>Es realitza…
#>   8 R-Ladie… WomenInTech … 2017-08-25  18:30                     1 "<p>[!!!] NO OS…
#>   9 R-Ladie… Plots with g… 2017-09-27  19:00                    33 "<p>Per fi torn…
#>  10 R-Ladie… Take your R … 2017-11-06  19:00                    36 "<p>T'agradaria…
#>  # … with 68 more rows
```
…
